^C:\USERS\ROEYB\SOURCE\REPOS\VULKAN\VULKAN\MAIN.CPP
C:\USERS\ROEYB\SOURCE\REPOS\VULKAN\VULKAN\X64\DEBUG\VC142.PDB
C:\USERS\ROEYB\SOURCE\REPOS\VULKAN\VULKAN\X64\DEBUG\VC142.IDB
C:\USERS\ROEYB\SOURCE\REPOS\VULKAN\VULKAN\X64\DEBUG\MAIN.OBJ
